{
  "project_info": {
    "project_number": "18497960732",
    "firebase_url": "https://telemax-aca95.firebaseio.com",
    "project_id": "telemax-aca95",
    "storage_bucket": "telemax-aca95.appspot.com"
  },
  "client": [
    {
      "client_info": {
        "mobilesdk_app_id": "1:18497960732:android:93a6d824c783b312",
        "android_client_info": {
          "package_name": "telemax.hitel"
        }
      },
      "oauth_client": [
        {
          "client_id": "18497960732-d7mvnu9evtqo00c29eshcbv1o5g51122.apps.googleusercontent.com",
          "client_type": 3
        }
      ],
      "api_key": [
        {
          "current_key": "AIzaSyDOKgN88n08o3KIIlR1BD_WxMB176Rn09w"
        }
      ],
      "services": {
        "analytics_service": {
          "status": 1
        },
        "appinvite_service": {
          "status": 1,
          "other_platform_oauth_client": []
        },
        "ads_service": {
          "status": 2
        }
      }
    }
  ],
  "configuration_version": "1"
}